Year,LandMaxTemperature,LandMinTemperature
1/1/2000,8.349,-2.322
2/1/2000,9.863,-1.371
3/1/2000,12.205,0.376
4/1/2000,15.534,3.68
5/1/2000,17.721,5.997
6/1/2000,19.847,8.243
7/1/2000,20.665,9.098
8/1/2000,20.308,8.796
9/1/2000,18.373,6.822
10/1/2000,15.069,4
11/1/2000,11.67,0.996
12/1/2000,9.182,-1.333
1/1/2001,8.827,-2.078
2/1/2001,9.486,-1.997
3/1/2001,12.131,0.411
4/1/2001,15.174,3.234
5/1/2001,18.185,6.35
6/1/2001,19.962,8.218
7/1/2001,20.923,9.428
8/1/2001,20.332,8.664
9/1/2001,18.581,7.07
10/1/2001,15.578,4.353
11/1/2001,12.89,1.92
12/1/2001,9.841,-0.685
